# Blender MTL File: 'epee.blend'
# Material Count: 5

newmtl blame
Ns 225.000000
Ka 1.000000 1.000000 1.000000
Kd 0.723043 0.723043 0.723043
Ks 0.500000 0.500000 0.500000
Ke 0.000000 0.000000 0.000000
Ni 1.450000
d 1.000000
illum 2

newmtl cboule
Ns 225.000000
Ka 1.000000 1.000000 1.000000
Kd 0.000191 0.000000 0.157434
Ks 0.500000 0.500000 0.500000
Ke 0.000000 0.000000 0.000000
Ni 1.450000
d 1.000000
illum 2

newmtl glame
Ns 323.999994
Ka 1.000000 1.000000 1.000000
Kd 0.266761 0.266761 0.266761
Ks 0.500000 0.500000 0.500000
Ke 0.000000 0.000000 0.000000
Ni 1.450000
d 1.000000
illum 2

newmtl gris
Ns 323.999994
Ka 1.000000 1.000000 1.000000
Kd 0.141886 0.133573 0.142401
Ks 0.500000 0.500000 0.500000
Ke 0.000000 0.000000 0.000000
Ni 1.450000
d 1.000000
illum 2

newmtl manche
Ns 323.999994
Ka 1.000000 1.000000 1.000000
Kd 0.063716 0.006567 0.011784
Ks 0.500000 0.500000 0.500000
Ke 0.000000 0.000000 0.000000
Ni 1.450000
d 1.000000
illum 2
